Intro to the Tidyverse
…
---

# Tidy data

```r
tidy_df
```

```
## # A tibble: 30 x 4
##    age_group gender year  income
##    <chr>     <chr>  <chr>  <dbl>
*##  1 < 18      male   2016   22000
##  2 18-30     male   2016   36000
##  3 31-50     male   2016   50000
##  4 51-60     male   2016   62000
##  5 > 60      male   2016   75000
*##  6 < 18      female 2016   20000
##  7 18-30     female 2016   35000
##  8 31-50     female 2016   40000
##  9 51-60     female 2016   60000
## 10 > 60      female 2016   72000
## # … with 20 more rows
```

---

# Tidy the data

```r
untidy_df %>% 
  pivot_longer(cols = male_2016:female_2018, 
               names_to = "gender_year",
               values_to = "income") %>% 
* separate(gender_year, into = c("gender", "year"))
```

```
## # A tibble: 30 x 4
##    age_group gender year  income
##    <chr>     <chr>  <chr>  <dbl>
*##  1 < 18      male   2016   22000
##  2 < 18      female 2016   20000
##  3 < 18      male   2017   22000
##  4 < 18      female 2017   20000
##  5 < 18      male   2018   22000
*##  6 < 18      female 2018   20000
##  7 18-30     male   2016   36000
##  8 18-30     female 2016   35000
##  9 18-30     male   2017   36000
## 10 18-30     female 2017   35000
## # … with 20 more rows
```
---
# Tidy the data

```r
untidy_df %>% 
  pivot_longer( 
*   cols = male_2016:female_2018,
*   names_to = c("gender", "year"),
*   names_pattern = "(.*)_(.*)",
*   values_to = "income"
  )
```

```
## # A tibble: 30 x 4
##    age_group gender year  income
##    <chr>     <chr>  <chr>  <dbl>
*##  1 < 18      male   2016   22000
##  2 < 18      female 2016   20000
##  3 < 18      male   2017   22000
##  4 < 18      female 2017   20000
##  5 < 18      male   2018   22000
*##  6 < 18      female 2018   20000
##  7 18-30     male   2016   36000
##  8 18-30     female 2016   35000
##  9 18-30     male   2017   36000
## 10 18-30     female 2017   35000
## # … with 20 more rows
```
…
---

# penguins dataset

```r
penguins <- as_tibble(penguin_df)
```

```r
penguins
```

```
*## # A tibble: 344 x 7
*##    species island culmen_length_mm culmen_depth_mm flipper_length_… body_mass_g
*##    <chr>   <chr>             <dbl>           <dbl>            <dbl>       <dbl>
##  1 Adelie  Torge…             39.1            18.7              181        3750
##  2 Adelie  Torge…             39.5            17.4              186        3800
##  3 Adelie  Torge…             40.3            18                195        3250
##  4 Adelie  Torge…             NA              NA                 NA          NA
##  5 Adelie  Torge…             36.7            19.3              193        3450
##  6 Adelie  Torge…             39.3            20.6              190        3650
##  7 Adelie  Torge…             38.9            17.8              181        3625
##  8 Adelie  Torge…             39.2            19.6              195        4675
##  9 Adelie  Torge…             34.1            18.1              193        3475
## 10 Adelie  Torge…             42              20.2              190        4250
## # … with 334 more rows, and 1 more variable: sex <chr>
```
…
---

### [`dplyr::filter()`](https://dplyr.tidyverse.org/reference/filter.html)

Returns rows where the logical argument is `TRUE`

```r
# sex EQUAL to MALE
filter(penguins, species == "Adelie") 
```

```
## # A tibble: 152 x 7
##    species island culmen_length_mm culmen_depth_mm flipper_length_… body_mass_g
##    <chr>   <chr>             <dbl>           <dbl>            <dbl>       <dbl>
##  1 Adelie  Torge…             39.1            18.7              181        3750
##  2 Adelie  Torge…             39.5            17.4              186        3800
##  3 Adelie  Torge…             40.3            18                195        3250
##  4 Adelie  Torge…             NA              NA                 NA          NA
##  5 Adelie  Torge…             36.7            19.3              193        3450
##  6 Adelie  Torge…             39.3            20.6              190        3650
##  7 Adelie  Torge…             38.9            17.8              181        3625
##  8 Adelie  Torge…             39.2            19.6              195        4675
##  9 Adelie  Torge…             34.1            18.1              193        3475
## 10 Adelie  Torge…             42              20.2              190        4250
## # … with 142 more rows, and 1 more variable: sex <chr>
```

---

### [`dplyr::filter()`](https://dplyr.tidyverse.org/reference/filter.html)

```r
penguins %>% 
  # species matching Adelie or Gentoo
  filter(species %in% c("Adelie", "Gentoo")) 
```

```
## # A tibble: 276 x 7
##    species island culmen_length_mm culmen_depth_mm flipper_length_… body_mass_g
##    <chr>   <chr>             <dbl>           <dbl>            <dbl>       <dbl>
##  1 Adelie  Torge…             39.1            18.7              181        3750
##  2 Adelie  Torge…             39.5            17.4              186        3800
##  3 Adelie  Torge…             40.3            18                195        3250
##  4 Adelie  Torge…             NA              NA                 NA          NA
##  5 Adelie  Torge…             36.7            19.3              193        3450
##  6 Adelie  Torge…             39.3            20.6              190        3650
##  7 Adelie  Torge…             38.9            17.8              181        3625
##  8 Adelie  Torge…             39.2            19.6              195        4675
##  9 Adelie  Torge…             34.1            18.1              193        3475
## 10 Adelie  Torge…             42              20.2              190        4250
## # … with 266 more rows, and 1 more variable: sex <chr>
```
…
---

### [`dplyr::arrange()`](https://dplyr.tidyverse.org/reference/arrange.html)

`arrange` defaults to smallest to largest

```r
penguins %>% 
  arrange(culmen_length_mm)
```

```
## # A tibble: 344 x 7
##    species island culmen_length_mm culmen_depth_mm flipper_length_… body_mass_g
##    <chr>   <chr>             <dbl>           <dbl>            <dbl>       <dbl>
*##  1 Adelie  Dream              32.1            15.5              188        3050
##  2 Adelie  Dream              33.1            16.1              178        2900
##  3 Adelie  Torge…             33.5            19                190        3600
##  4 Adelie  Dream              34              17.1              185        3400
##  5 Adelie  Torge…             34.1            18.1              193        3475
##  6 Adelie  Torge…             34.4            18.4              184        3325
##  7 Adelie  Biscoe             34.5            18.1              187        2900
##  8 Adelie  Torge…             34.6            21.1              198        4400
##  9 Adelie  Torge…             34.6            17.2              189        3200
## 10 Adelie  Biscoe             35              17.9              190        3450
## # … with 334 more rows, and 1 more variable: sex <chr>
```

---

### `dplyr::arrange()`

`desc` means descending order, ie largest to smallest

```r
penguins %>% 
  arrange(desc(culmen_length_mm))
```

```
## # A tibble: 344 x 7
##    species island culmen_length_mm culmen_depth_mm flipper_length_… body_mass_g
##    <chr>   <chr>             <dbl>           <dbl>            <dbl>       <dbl>
*##  1 Gentoo  Biscoe             59.6            17                230        6050
##  2 Chinst… Dream              58              17.8              181        3700
##  3 Gentoo  Biscoe             55.9            17                228        5600
##  4 Chinst… Dream              55.8            19.8              207        4000
##  5 Gentoo  Biscoe             55.1            16                230        5850
##  6 Gentoo  Biscoe             54.3            15.7              231        5650
##  7 Chinst… Dream              54.2            20.8              201        4300
##  8 Chinst… Dream              53.5            19.9              205        4500
##  9 Gentoo  Biscoe             53.4            15.8              219        5500
## 10 Chinst… Dream              52.8            20                205        4550
## # … with 334 more rows, and 1 more variable: sex <chr>
```

---

### [`dplyr::arrange()`](https://dplyr.tidyverse.org/reference/arrange.html)

```r
penguins %>% 
  arrange(desc(flipper_length_mm), desc(culmen_length_mm))
```

```
## # A tibble: 344 x 7
##    species island culmen_length_mm culmen_depth_mm flipper_length_… body_mass_g
##    <chr>   <chr>             <dbl>           <dbl>            <dbl>       <dbl>
*##  1 Gentoo  Biscoe             54.3            15.7              231        5650
##  2 Gentoo  Biscoe             59.6            17                230        6050
##  3 Gentoo  Biscoe             55.1            16                230        5850
##  4 Gentoo  Biscoe             52.1            17                230        5550
##  5 Gentoo  Biscoe             51.5            16.3              230        5500
##  6 Gentoo  Biscoe             50              16.3              230        5700
##  7 Gentoo  Biscoe             49.8            16.8              230        5700
##  8 Gentoo  Biscoe             48.6            16                230        5800
##  9 Gentoo  Biscoe             49.8            15.9              229        5950
## 10 Gentoo  Biscoe             49.5            16.2              229        5800
## # … with 334 more rows, and 1 more variable: sex <chr>
```
…
---

### [`dplyr::group_by()`](https://dplyr.tidyverse.org/reference/group_by.html)

```r
penguins %>% 
  group_by(species)
```

```
## # A tibble: 344 x 7
*## # Groups:   species [3]
##    species island culmen_length_mm culmen_depth_mm flipper_length_… body_mass_g
##    <chr>   <chr>             <dbl>           <dbl>            <dbl>       <dbl>
##  1 Adelie  Torge…             39.1            18.7              181        3750
##  2 Adelie  Torge…             39.5            17.4              186        3800
##  3 Adelie  Torge…             40.3            18                195        3250
##  4 Adelie  Torge…             NA              NA                 NA          NA
##  5 Adelie  Torge…             36.7            19.3              193        3450
##  6 Adelie  Torge…             39.3            20.6              190        3650
##  7 Adelie  Torge…             38.9            17.8              181        3625
##  8 Adelie  Torge…             39.2            19.6              195        4675
##  9 Adelie  Torge…             34.1            18.1              193        3475
## 10 Adelie  Torge…             42              20.2              190        4250
## # … with 334 more rows, and 1 more variable: sex <chr>
```
…
---

# Tidy the data

```r
untidy_df %>% 
* pivot_longer(cols = male_2016:female_2018,
*              names_to = "gender_year",
*              values_to = "income")
```

```
## # A tibble: 30 x 3
##    age_group gender_year income
##    <chr>     <chr>        <dbl>
*##  1 < 18      male_2016    22000
##  2 < 18      female_2016  20000
##  3 < 18      male_2017    22000
##  4 < 18      female_2017  20000
##  5 < 18      male_2018    22000
*##  6 < 18      female_2018  20000
##  7 18-30     male_2016    36000
##  8 18-30     female_2016  35000
##  9 18-30     male_2017    36000
## 10 18-30     female_2017  35000
## # … with 20 more rows
```

---

# Tidy the data

```r
untidy_df %>% 
  pivot_longer(cols = male_2016:female_2018, 
               names_to = "gender_year",
               values_to = "income")  %>% 
* separate(gender_year, into = c("gender", "year"))
```

```
## # A tibble: 30 x 4
##    age_group gender year  income
##    <chr>     <chr>  <chr>  <dbl>
*##  1 < 18      male   2016   22000
##  2 < 18      female 2016   20000
##  3 < 18      male   2017   22000
##  4 < 18      female 2017   20000
##  5 < 18      male   2018   22000
*##  6 < 18      female 2018   20000
##  7 18-30     male   2016   36000
##  8 18-30     female 2016   35000
##  9 18-30     male   2017   36000
## 10 18-30     female 2017   35000
## # … with 20 more rows
```
…
# Tidy the data

```r
untidy_df %>% 
  pivot_longer( 
*   cols = male_2016:female_2018,
*   names_to = c("gender", "year"),
*   names_pattern = "(.*)_(.*)",
*   values_to = "income"
  )
```

```
## # A tibble: 30 x 4
##    age_group gender year  income
##    <chr>     <chr>  <chr>  <dbl>
*##  1 < 18      male   2016   22000
##  2 < 18      female 2016   20000
##  3 < 18      male   2017   22000
##  4 < 18      female 2017   20000
##  5 < 18      male   2018   22000
*##  6 < 18      female 2018   20000
##  7 18-30     male   2016   36000
##  8 18-30     female 2016   35000
##  9 18-30     male   2017   36000
## 10 18-30     female 2017   35000
## # … with 20 more rows
```

---

# Untidy the data

```r
tidy_df %>% 
* unite("gender_year", c("gender", "year"), sep = "_")
```

--

```
## # A tibble: 30 x 3
*##    age_group gender_year income
##    <chr>     <chr>        <dbl>
*##  1 < 18      male_2016    22000
##  2 18-30     male_2016    36000
##  3 31-50     male_2016    50000
##  4 51-60     male_2016    62000
##  5 > 60      male_2016    75000
##  6 < 18      female_2016  20000
##  7 18-30     female_2016  35000
##  8 31-50     female_2016  40000
##  9 51-60     female_2016  60000
## 10 > 60      female_2016  72000
## # … with 20 more rows
```
…
