Intro to the Tidyverse
…
```
## [1] 55
```

---

# More Complex example

```r
data
```

```
## # A tibble: 40 x 4
##     year gender age_group income
##    <dbl> <chr>  <fct>      <dbl>
##  1  2018 Male   < 18       20000
##  2  2018 Male   < 18       22000
##  3  2018 Male   18-30      35000
##  4  2018 Male   18-30      36000
##  5  2018 Male   31-50      40000
##  6  2018 Female 31-50      50000
##  7  2018 Female 51-60      60000
##  8  2018 Female 51-60      62000
##  9  2018 Female > 60       72000
## 10  2018 Female > 60       75000
## # … with 30 more rows
```
…
---

# Tidy data

```r
tidy_df
```

```
## # A tibble: 30 x 4
##    age_group gender year  income
##    <chr>     <chr>  <chr>  <dbl>
*##  1 < 18      male   2016   22000
##  2 18-30     male   2016   36000
##  3 31-50     male   2016   50000
##  4 51-60     male   2016   62000
##  5 > 60      male   2016   75000
*##  6 < 18      female 2016   20000
##  7 18-30     female 2016   35000
##  8 31-50     female 2016   40000
##  9 51-60     female 2016   60000
## 10 > 60      female 2016   72000
## # … with 20 more rows
```

---

# Tidy the data

```r
untidy_df %>% 
* gather(gender_year, income, male_2016:female_2018)
```

```
## # A tibble: 30 x 3
##    age_group gender_year income
##    <chr>     <chr>        <dbl>
*##  1 < 18      male_2016    22000
##  2 18-30     male_2016    36000
##  3 31-50     male_2016    50000
##  4 51-60     male_2016    62000
##  5 > 60      male_2016    75000
*##  6 < 18      female_2016  20000
##  7 18-30     female_2016  35000
##  8 31-50     female_2016  40000
##  9 51-60     female_2016  60000
## 10 > 60      female_2016  72000
## # … with 20 more rows
```

---

# Tidy the data

```r
untidy_df %>% 
  gather(gender_year, income, male_2016:female_2018) %>% 
* separate(gender_year, into = c("gender", "year"))
```

```
## # A tibble: 30 x 4
##    age_group gender year  income
##    <chr>     <chr>  <chr>  <dbl>
*##  1 < 18      male   2016   22000
##  2 18-30     male   2016   36000
##  3 31-50     male   2016   50000
##  4 51-60     male   2016   62000
##  5 > 60      male   2016   75000
*##  6 < 18      female 2016   20000
##  7 18-30     female 2016   35000
##  8 31-50     female 2016   40000
##  9 51-60     female 2016   60000
## 10 > 60      female 2016   72000
## # … with 20 more rows
```
…
---

# mtcars dataset

`data.frame` vs `tibble`

```r
mtcars_tbl
```

```
*## # A tibble: 32 x 11
*##      mpg   cyl  disp    hp  drat    wt  qsec    vs    am  gear  carb
*##    <dbl> <dbl> <dbl> <dbl> <dbl> <dbl> <dbl> <dbl> <dbl> <dbl> <dbl>
##  1  21       6  160    110  3.9   2.62  16.5     0     1     4     4
##  2  21       6  160    110  3.9   2.88  17.0     0     1     4     4
##  3  22.8     4  108     93  3.85  2.32  18.6     1     1     4     1
##  4  21.4     6  258    110  3.08  3.22  19.4     1     0     3     1
##  5  18.7     8  360    175  3.15  3.44  17.0     0     0     3     2
##  6  18.1     6  225    105  2.76  3.46  20.2     1     0     3     1
##  7  14.3     8  360    245  3.21  3.57  15.8     0     0     3     4
##  8  24.4     4  147.    62  3.69  3.19  20       1     0     4     2
##  9  22.8     4  141.    95  3.92  3.15  22.9     1     0     4     2
## 10  19.2     6  168.   123  3.92  3.44  18.3     1     0     4     4
## # … with 22 more rows
```

---

# mtcars dataset

```r
mtcars <- as_tibble(mtcars)
```

```r
mtcars
```

```
*## # A tibble: 32 x 11
*##      mpg   cyl  disp    hp  drat    wt  qsec    vs    am  gear  carb
*##    <dbl> <dbl> <dbl> <dbl> <dbl> <dbl> <dbl> <dbl> <dbl> <dbl> <dbl>
##  1  21       6  160    110  3.9   2.62  16.5     0     1     4     4
##  2  21       6  160    110  3.9   2.88  17.0     0     1     4     4
##  3  22.8     4  108     93  3.85  2.32  18.6     1     1     4     1
##  4  21.4     6  258    110  3.08  3.22  19.4     1     0     3     1
##  5  18.7     8  360    175  3.15  3.44  17.0     0     0     3     2
##  6  18.1     6  225    105  2.76  3.46  20.2     1     0     3     1
##  7  14.3     8  360    245  3.21  3.57  15.8     0     0     3     4
##  8  24.4     4  147.    62  3.69  3.19  20       1     0     4     2
##  9  22.8     4  141.    95  3.92  3.15  22.9     1     0     4     2
## 10  19.2     6  168.   123  3.92  3.44  18.3     1     0     4     4
## # … with 22 more rows
```
…
---

### `dplyr::filter()`

```r
mtcars %>% 
  filter(cyl != 4)
```

```
## # A tibble: 21 x 11
##      mpg   cyl  disp    hp  drat    wt  qsec    vs    am  gear  carb
##    <dbl> <dbl> <dbl> <dbl> <dbl> <dbl> <dbl> <dbl> <dbl> <dbl> <dbl>
##  1  21       6  160    110  3.9   2.62  16.5     0     1     4     4
##  2  21       6  160    110  3.9   2.88  17.0     0     1     4     4
##  3  21.4     6  258    110  3.08  3.22  19.4     1     0     3     1
##  4  18.7     8  360    175  3.15  3.44  17.0     0     0     3     2
##  5  18.1     6  225    105  2.76  3.46  20.2     1     0     3     1
##  6  14.3     8  360    245  3.21  3.57  15.8     0     0     3     4
##  7  19.2     6  168.   123  3.92  3.44  18.3     1     0     4     4
##  8  17.8     6  168.   123  3.92  3.44  18.9     1     0     4     4
##  9  16.4     8  276.   180  3.07  4.07  17.4     0     0     3     3
## 10  17.3     8  276.   180  3.07  3.73  17.6     0     0     3     3
## # … with 11 more rows
```

---

### `dplyr::arrange()`

```r
mtcars %>% 
  arrange(mpg)
```

```
## # A tibble: 32 x 11
##      mpg   cyl  disp    hp  drat    wt  qsec    vs    am  gear  carb
##    <dbl> <dbl> <dbl> <dbl> <dbl> <dbl> <dbl> <dbl> <dbl> <dbl> <dbl>
*##  1  10.4     8  472    205  2.93  5.25  18.0     0     0     3     4
##  2  10.4     8  460    215  3     5.42  17.8     0     0     3     4
##  3  13.3     8  350    245  3.73  3.84  15.4     0     0     3     4
##  4  14.3     8  360    245  3.21  3.57  15.8     0     0     3     4
##  5  14.7     8  440    230  3.23  5.34  17.4     0     0     3     4
##  6  15       8  301    335  3.54  3.57  14.6     0     1     5     8
##  7  15.2     8  276.   180  3.07  3.78  18       0     0     3     3
##  8  15.2     8  304    150  3.15  3.44  17.3     0     0     3     2
##  9  15.5     8  318    150  2.76  3.52  16.9     0     0     3     2
## 10  15.8     8  351    264  4.22  3.17  14.5     0     1     5     4
## # … with 22 more rows
```

---

### `dplyr::arrange()`

```r
mtcars %>% 
  arrange(desc(mpg))
```

```
## # A tibble: 32 x 11
##      mpg   cyl  disp    hp  drat    wt  qsec    vs    am  gear  carb
##    <dbl> <dbl> <dbl> <dbl> <dbl> <dbl> <dbl> <dbl> <dbl> <dbl> <dbl>
*##  1  33.9     4  71.1    65  4.22  1.84  19.9     1     1     4     1
##  2  32.4     4  78.7    66  4.08  2.2   19.5     1     1     4     1
##  3  30.4     4  75.7    52  4.93  1.62  18.5     1     1     4     2
##  4  30.4     4  95.1   113  3.77  1.51  16.9     1     1     5     2
##  5  27.3     4  79      66  4.08  1.94  18.9     1     1     4     1
##  6  26       4 120.     91  4.43  2.14  16.7     0     1     5     2
##  7  24.4     4 147.     62  3.69  3.19  20       1     0     4     2
##  8  22.8     4 108      93  3.85  2.32  18.6     1     1     4     1
##  9  22.8     4 141.     95  3.92  3.15  22.9     1     0     4     2
## 10  21.5     4 120.     97  3.7   2.46  20.0     1     0     3     1
## # … with 22 more rows
```

---

### `dplyr::arrange()`

```r
mtcars %>% 
  arrange(desc(cyl), desc(hp))
```

```
## # A tibble: 32 x 11
##      mpg   cyl  disp    hp  drat    wt  qsec    vs    am  gear  carb
##    <dbl> <dbl> <dbl> <dbl> <dbl> <dbl> <dbl> <dbl> <dbl> <dbl> <dbl>
*##  1  15       8  301    335  3.54  3.57  14.6     0     1     5     8
##  2  15.8     8  351    264  4.22  3.17  14.5     0     1     5     4
##  3  14.3     8  360    245  3.21  3.57  15.8     0     0     3     4
##  4  13.3     8  350    245  3.73  3.84  15.4     0     0     3     4
##  5  14.7     8  440    230  3.23  5.34  17.4     0     0     3     4
##  6  10.4     8  460    215  3     5.42  17.8     0     0     3     4
##  7  10.4     8  472    205  2.93  5.25  18.0     0     0     3     4
##  8  16.4     8  276.   180  3.07  4.07  17.4     0     0     3     3
##  9  17.3     8  276.   180  3.07  3.73  17.6     0     0     3     3
## 10  15.2     8  276.   180  3.07  3.78  18       0     0     3     3
## # … with 22 more rows
```
…
---

### `dplyr::group_by()`

```r
mtcars %>% 
  group_by(cyl)
```

```
## # A tibble: 32 x 11
*## # Groups:   cyl [3]
##      mpg   cyl  disp    hp  drat    wt  qsec    vs    am  gear  carb
##    <dbl> <dbl> <dbl> <dbl> <dbl> <dbl> <dbl> <dbl> <dbl> <dbl> <dbl>
##  1  21       6  160    110  3.9   2.62  16.5     0     1     4     4
##  2  21       6  160    110  3.9   2.88  17.0     0     1     4     4
##  3  22.8     4  108     93  3.85  2.32  18.6     1     1     4     1
##  4  21.4     6  258    110  3.08  3.22  19.4     1     0     3     1
##  5  18.7     8  360    175  3.15  3.44  17.0     0     0     3     2
##  6  18.1     6  225    105  2.76  3.46  20.2     1     0     3     1
##  7  14.3     8  360    245  3.21  3.57  15.8     0     0     3     4
##  8  24.4     4  147.    62  3.69  3.19  20       1     0     4     2
##  9  22.8     4  141.    95  3.92  3.15  22.9     1     0     4     2
## 10  19.2     6  168.   123  3.92  3.44  18.3     1     0     4     4
## # … with 22 more rows
```
…
---

# Tidy the data

```r
untidy_df %>% 
* gather(gender_year, income, male_2016:female_2018)
```

--

```
## # A tibble: 30 x 3
*##    age_group gender_year income
##    <chr>     <chr>        <dbl>
##  1 < 18      male_2016    22000
##  2 18-30     male_2016    36000
##  3 31-50     male_2016    50000
##  4 51-60     male_2016    62000
##  5 > 60      male_2016    75000
##  6 < 18      female_2016  20000
##  7 18-30     female_2016  35000
##  8 31-50     female_2016  40000
##  9 51-60     female_2016  60000
## 10 > 60      female_2016  72000
## # … with 20 more rows
```

---

# Tidy the data

```r
untidy_df %>% 
  gather(gender_year, income, male_2016:female_2018) %>% 
* separate(gender_year, into = c("gender", "year"))
```

--

```
## # A tibble: 30 x 4
*##    age_group gender year  income
##    <chr>     <chr>  <chr>  <dbl>
*##  1 < 18      male   2016   22000
##  2 18-30     male   2016   36000
##  3 31-50     male   2016   50000
##  4 51-60     male   2016   62000
##  5 > 60      male   2016   75000
*##  6 < 18      female 2016   20000
##  7 18-30     female 2016   35000
##  8 31-50     female 2016   40000
##  9 51-60     female 2016   60000
## 10 > 60      female 2016   72000
## # … with 20 more rows
```

---

# Untidy the data

```r
tidy_df %>% 
* unite("gender_year", c("gender", "year"), sep = "_")
```

--

```
## # A tibble: 30 x 3
*##    age_group gender_year income
##    <chr>     <chr>        <dbl>
*##  1 < 18      male_2016    22000
##  2 18-30     male_2016    36000
##  3 31-50     male_2016    50000
##  4 51-60     male_2016    62000
##  5 > 60      male_2016    75000
##  6 < 18      female_2016  20000
##  7 18-30     female_2016  35000
##  8 31-50     female_2016  40000
##  9 51-60     female_2016  60000
## 10 > 60      female_2016  72000
## # … with 20 more rows
```
…
